{
  "workbench.iconTheme": "vscode-great-icons",
  "workbench.colorTheme": "One Dark Pro",
  "html.format.indentInnerHtml": true,
  "editor.tabSize": 2,
  "files.autoSave": "onFocusChange",
  "highlight-matching-tag.highlightSelfClosing": true,
  "highlight-matching-tag.enabled": true,
  "files.associations": {
  ".scss": "scss"
  },
  "sync.gist": "36e09d4d1c5d46338c43707072f796066628467e",
  "window.restoreFullscreen": true,
  "editor.detectIndentation": false,
  "workbench.editor.enablePreview": false,
  "workbench.editor.enablePreviewFromQuickOpen": false,
  "editor.cursorBlinking": "phase",
  "editor.cursorWidth": 3,
  "workbench.view.alwaysShowHeaderActions": true,
  "breadcrumbs.enabled": true,
  "workbench.colorCustomizations": {
  "titleBar.activeBackground": "#191919cc",
  "titleBar.inactiveBackground": "#191919cc",
  "titleBar.border": "#333",
  "activityBar.background": "#191919cc",
  "activityBar.border": "#333",
  "sideBar.background": "#191919cc",
  "sideBar.border": "#333",
  "tab.activeBackground": "#191919cc",
  "tab.border": "#333",
  "editor.background": "#191919cc",
  "statusBarItem.hoverBackground": "#191919cc",
  "statusBar.border": "#191919cc",
  "statusBar.background": "#333",
  "scrollbar.shadow": "#191919cc",
  "editorCursor.foreground": "#fff",
  "editor.selectionBackground": "#292929",
  },
  "window.titleBarStyle": "custom",
  "prettier.bracketSpacing": false,
  "material-icon-theme.opacity": null,
  "extensions.ignoreRecommendations": false,
  "editor.wordWrap": "on",
  "explorer.confirmDelete": false,
  "editor.largeFileOptimizations": false,
  "files.trimTrailingWhitespace": true,
  "terminal.integrated.rendererType": "dom",
  "zenMode.hideActivityBar": false,
  "workbench.sideBar.location": "left",
  "workbench.statusBar.feedback.visible": false,
  "javascript.updateImportsOnFileMove.enabled": "always",
  "explorer.confirmDragAndDrop": false,
  "typescript.updateImportsOnFileMove.enabled": "always",
  "vetur.validation.template": false,
  "explorer.compactFolders": false
}